20
0 1 9
0 2 4
0 3 10
0 4 10
0 5 10
0 6 4
0 7 3
0 8 10
0 9 9
0 10 11
0 11 12
0 12 1
0 13 8
0 14 11
0 15 5
0 16 15
0 17 9
0 18 12
0 19 7
1 2 5
1 3 9
1 4 3
1 5 9
1 6 5
1 7 10
1 8 1
1 9 4
1 10 2
1 11 5
1 12 8
1 13 3
1 14 10
1 15 10
1 16 6
1 17 2
1 18 3
1 19 2
2 3 8
2 4 6
2 5 8
2 6 2
2 7 5
2 8 6
2 9 5
2 10 7
2 11 8
2 12 3
2 13 4
2 14 9
2 15 5
2 16 11
2 17 5
2 18 8
2 19 3
3 4 12
3 5 2
3 6 6
3 7 7
3 8 10
3 9 5
3 10 9
3 11 6
3 12 9
3 13 12
3 14 1
3 15 7
3 16 9
3 17 11
3 18 10
3 19 11
4 5 12
4 6 6
4 7 11
4 8 2
4 9 7
4 10 3
4 11 8
4 12 9
4 13 2
4 14 13
4 15 11
4 16 5
4 17 1
4 18 2
4 19 3
5 6 6
5 7 9
5 8 10
5 9 5
5 10 9
5 11 4
5 12 9
5 13 12
5 14 1
5 15 9
5 16 7
5 17 11
5 18 10
5 19 11
6 7 5
6 8 6
6 9 5
6 10 7
6 11 8
6 12 3
6 13 6
6 14 7
6 15 5
6 16 11
6 17 5
6 18 8
6 19 5
7 8 11
7 9 10
7 10 12
7 11 13
7 12 2
7 13 9
7 14 8
7 15 2
7 16 16
7 17 10
7 18 13
7 19 8
8 9 5
8 10 1
8 11 6
8 12 9
8 13 2
8 14 11
8 15 11
8 16 5
8 17 1
8 18 2
8 19 3
9 10 4
9 11 3
9 12 8
9 13 7
9 14 6
9 15 10
9 16 6
9 17 6
9 18 5
9 19 6
10 11 5
10 12 10
10 13 3
10 14 10
10 15 12
10 16 4
10 17 2
10 18 1
10 19 4
11 12 11
11 13 8
11 14 5
11 15 13
11 16 3
11 17 7
11 18 6
11 19 7
12 13 7
12 14 10
12 15 4
12 16 14
12 17 8
12 18 11
12 19 6
13 14 13
13 15 9
13 16 7
13 17 1
13 18 4
13 19 1
14 15 8
14 16 8
14 17 12
14 18 11
14 19 12
15 16 16
15 17 10
15 18 13
15 19 8
16 17 6
16 18 3
16 19 8
17 18 3
17 19 2
18 19 5

